
[
    {
        "id": 1,
        "title": "Ouvrier par zone",
        "img": "",
        "quantity": 2
    },
    {
        "id": 2,
        "title": "2 Ouvriers par zone",
        "img": "",
        "quantity": 2
    },
    {
        "id": 3,
        "title": "Tank par zone",
        "img": "",
        "quantity": 2
    },
    {
        "id": 4,
        "title": "Chasseur par zone",
        "img": "",
        "quantity": 2
    },
    {
        "id": 5,
        "title": "Sniper",
        "img": "",
        "quantity": 2
    },
    {
        "id": 6,
        "title": "Fusil de combat",
        "img": "",
        "quantity": 3
    },
    {
        "id": 7,
        "title": "Armure",
        "img": "",
        "quantity": 4
    },
    {
        "id": 8,
        "title": "Mitralleuse legere",
        "img": "",
        "quantity": 2
    },
    {
        "id": 9,
        "title": "Balles en pagaille",
        "img": "",
        "quantity": 3
    },
    {
        "id": 10,
        "title": "Lance flammes",
        "img": "",
        "quantity": 2
    },
    {
        "id": 11,
        "title": "Tranconneuse",
        "img": "",
        "quantity": 2
    },
    {
        "id": 12,
        "title": "Masse",
        "img": "",
        "quantity": 3
    },
    {
        "id": 13,
        "title": "Fusil lourd",
        "img": "",
        "quantity": 3
    },
    {
        "id": 14,
        "title": "Drone de reconnaissance",
        "img": "",
        "quantity": 2
    },
    {
        "id": 15,
        "title": "Lampe torche",
        "img": "",
        "quantity": 2
    },
    {
        "id": 16,
        "title": "Ration de combat",
        "img": "",
        "quantity": 3
    },
    {
        "id": 17,
        "title": "Pistolet mitrailleur",
        "img": "",
        "quantity": 2
    },
    {
        "id": 18,
        "title": "Trancheur lourd",
        "img": "",
        "quantity": 3
    },
    {
        "id": 19,
        "title": "Cellule énergique",
        "img": "",
        "quantity": 6
    },
    {
        "id": 20,
        "title": "Cartouche lance flammes",
        "img": "",
        "quantity": 4
    }
]
    
