
[
    {
        "id": 4,
        "title": "Invasion de chasseurs",
        "description": [],
        "img": "./assets/cards/hunter-card.jpg",
        "quantity": 10,
        "blue": 2,
        "yellow": 4,
        "orange": 6,
        "red": 8
    },
    {
        "id": 9,
        "title": "Invasion fongique : 1 Chasseur !",
        "description": [
            "1 Chasseur dans chaque Zone de Fonge Active."
        ],
        "img": "./assets/cards/hunter-mold-card.jpg",
        "quantity":2,
        "blue": 1,
        "yellow": 1,
        "orange": 1,
        "red": 1
    },
    {
        "id": 12,
        "title": "Une activation supplémentaire : Chasseurs",
        "description": [],
        "img": "./assets/cards/hunter-action-card.jpg",
        "quantity":2,
        "blue": 0,
        "yellow": 1,
        "orange": 1,
        "red": 1
    }
]
    
