
[
    {
        "id": 1,
        "title": "Seeker Workers Spawn",
        "description": [],
        "img": "./assets/cards/seeker-worker-card.png",
        "quantity": 10,
        "blue": 2,
        "yellow": 4,
        "orange": 6,
        "red": 8
    },
    {
        "id": 2,
        "title": "Mold Spawn: 1 Seeker Worker!",
        "description": [],
        "img": "./assets/cards/seeker-worker-mold-card.png",
        "quantity": 2,
        "blue": 1,
        "yellow": 1,
        "orange": 1,
        "red": 1
    }
]
    
